{
  "count": 1328,
  "next": "https://kf.kobotoolbox.org/api/v2/assets/aQJhqngNsednTaWshNJwN6/data/?limit=5&start=5",
  "previous": null,
  "results": [
    {
      "_id": 270270019,
      "start": "2023-09-18T08:52:33.235+07:00",
      "end": "2023-09-20T08:37:40.268+07:00",
      "deviceid": "ee.kobotoolbox.org:89nS4eXYrObGdaRt",
      "Data_Responden/nama": "AMIR",
      "Data_Responden/alamat": "KENDARI",
      "Data_Responden/telepon": "085241403333",
      "Data_Responden/hp": "085241403333",
      "Data_Responden/ktp": "747102",
      "Data_Responden/interviewer": "REZA",
      "Data_Responden/tanggal": "2023-09-13",
      "Data_Responden/jam": "11:00:00.000+07:00",
      "Group_S/S1": "2",
      "Group_S/S2": "5",
      "Group_S/S3": "KMP Merak",
      "Group_S/S5": "13:00:00.000+07:00",
      "Group_S/S6": "1",
      "Group_S/S7": "1",
      "Group_S/S8": "3",
      "Group_S/S9": "96",
      "Group_S/S9_L": "SUPIR",
      "Group_S/S10": "4",
      "Group_S/S11": "1",
      "Group_S/S12": "5",
      "Group_S/S13": "2",
      "Group_S/S14": "96",
      "Group_S/S14_L": "PENGURUS BUS",
      "Group_S/S15": "5",
      "Group_S/S16": "12",
      "Group_S/S17": "6",
      "Group_S/S18": "2",
      "Group_S/S19": "3",
      "Group_S/S20": "3",
      "Group_S/S21": "95000",
      "Group_A/Group_A_1/A1_1": "5",
      "Group_A/Group_A_1/A1_2": "5",
      "Group_A/Group_A_1/A1_3": "5",
      "Group_A/Group_A_1/A1_4": "5",
      "Group_A/Group_A_1/A1_5": "5",
      "Group_A/Group_A_1/A1_6": "5",
      "Group_A/Group_A_1/A1_7": "5",
      "Group_A/Group_A_1/A1_8": "5",
      "Group_A/Group_A_1/A1_10": "5",
      "Group_A/Group_A_1/A1_12": "5",
      "Group_A/Group_A_1/A1_13": "5",
      "Group_A/Group_A_1/A1_14": "5",
      "Group_A/Group_A_1/A1_15": "5",
      "Group_A/Group_A_1/A1_16": "5",
      "Group_A/Group_A_1/A1_17": "5",
      "Group_A/Group_A_1/A1_18": "5",
      "Group_A/Group_A_1/A1_19": "5",
      "Group_A/Group_A_1/A1_20": "5",
      "Group_A/Group_A_1/A1_21": "5",
      "Group_A/Group_A_1/A1_22": "5",
      "Group_A/Group_A_1/A1_23": "5",
      "Group_A/Group_A_1/A1_25": "5",
      "Group_A/Group_A_1/A1_26": "5",
      "Group_A/Group_A_1/A1_27": "5",
      "Group_A/Group_A_1/A1_28": "5",
      "Group_A/Group_A_1/A1_29": "5",
      "Group_A/Group_A_2/A2_1": "5",
      "Group_A/Group_A_2/A2_2": "5",
      "Group_A/Group_A_2/A2_3": "5",
      "Group_A/Group_A_2/A2_4": "5",
      "Group_A/Group_A_2/A2_5": "5",
      "Group_A/Group_A_2/A2_6": "5",
      "Group_A/Group_A_2/A2_7": "5",
      "Group_A/Group_A_2/A2_8": "5",
      "Group_A/Group_A_2/A2_10": "5",
      "Group_A/Group_A_2/A2_12": "5",
      "Group_A/Group_A_2/A2_13": "5",
      "Group_A/Group_A_2/A2_14": "5",
      "Group_A/Group_A_2/A2_15": "5",
      "Group_A/Group_A_2/A2_16": "5",
      "Group_A/Group_A_2/A2_17": "5",
      "Group_A/Group_A_2/A2_18": "5",
      "Group_A/Group_A_2/A2_19": "5",
      "Group_A/Group_A_2/A2_20": "5",
      "Group_A/Group_A_2/A2_21": "5",
      "Group_A/Group_A_2/A2_22": "5",
      "Group_A/Group_A_2/A2_23": "5",
      "Group_A/Group_A_2/A2_25": "5",
      "Group_A/Group_A_2/A2_26": "5",
      "Group_A/Group_A_2/A2_27": "5",
      "Group_A/Group_A_2/A2_28": "5",
      "Group_A/Group_A_2/A2_29": "5",
      "Group_A/Group_A_3/A3_30": "5",
      "Group_A/Group_A_3/A3_32": "5",
      "Group_A/Group_A_3/A3_33": "5",
      "Group_A/Group_A_3/A3_34": "5",
      "Group_A/Group_A_3/A3_35": "5",
      "Group_A/Group_A_3/A3_36": "5",
      "Group_A/Group_A_3/A3_37": "5",
      "Group_A/Group_A_3/A3_38": "5",
      "Group_A/Group_A_3/A3_39": "5",
      "Group_A/Group_A_3/A3_40": "5",
      "Group_A/Group_A_3/A3_41": "5",
      "Group_A/Group_A_3/A3_42": "5",
      "Group_A/Group_A_3/A3_43": "5",
      "Group_A/Group_A_3/A3_44": "5",
      "Group_A/Group_A_3/A3_45": "5",
      "Group_A/Group_A_3/A3_46": "5",
      "Group_A/Group_A_3/A3_47": "5",
      "Group_A/Group_A_4/A4_30": "5",
      "Group_A/Group_A_4/A4_32": "5",
      "Group_A/Group_A_4/A4_33": "5",
      "Group_A/Group_A_4/A4_34": "5",
      "Group_A/Group_A_4/A4_35": "5",
      "Group_A/Group_A_4/A4_36": "5",
      "Group_A/Group_A_4/A4_37": "5",
      "Group_A/Group_A_4/A4_38": "5",
      "Group_A/Group_A_4/A4_39": "5",
      "Group_A/Group_A_4/A4_40": "5",
      "Group_A/Group_A_4/A4_41": "5",
      "Group_A/Group_A_4/A4_42": "5",
      "Group_A/Group_A_4/A4_43": "5",
      "Group_A/Group_A_4/A4_44": "5",
      "Group_A/Group_A_4/A4_45": "5",
      "Group_A/Group_A_4/A4_46": "5",
      "Group_A/Group_A_4/A4_47": "5",
      "Group_A/Group_A_5/A5": "5",
      "Group_B/B1": "9",
      "Group_B/B2": "9",
      "Group_C/C1": "1",
      "Group_C/C2": "8",
      "Group_C/C4": "8",
      "Group_C/C5": "1",
      "Group_C/C6_1": "8",
      "Group_C/C6_2": "8",
      "Group_C/C6_3": "8",
      "Group_C/C6_4": "8",
      "Group_C/C6_5": "8",
      "Group_C/C6_6": "8",
      "Group_E/E2": "Belum pernah menggunakan layanan contact centre",
      "Group_E/E3": "Belum pernah menggunakan layanan contact centre",
      "Group_F/F1": "JALAN MENUJU AREA PARKIR RUSAK PARAH",
      "Group_F/F2": "PERBAIKAN JALAN AREA PARKIR PELABUHAN",
      "meta/instanceID": "uuid:0880a668-da3c-4723-b5af-a3a4d698b89e",
      "meta/rootUuid": "8f72b042-5b5e-4ebb-a419-645370378a44",
      "meta/instanceName": "AMIR",
      "meta/deprecatedID": "uuid:8f72b042-5b5e-4ebb-a419-645370378a44",
      "formhub/uuid": "bb6d058c1025445796df3a634c25b864",
      "__version__": "vCDmQMgPw6bpAR9gsGAsJU",
      "_xform_id_string": "aQJhqngNsednTaWshNJwN6",
      "_uuid": "0880a668-da3c-4723-b5af-a3a4d698b89e",
      "_attachments": [],
      "_status": "submitted_via_web",
      "_geolocation": [
        null,
        null
      ],
      "_submission_time": "2023-09-18T02:08:39",
      "_tags": [],
      "_notes": [],
      "_validation_status": {},
      "_submitted_by": null
    },
    {
      "_id": 270611875,
      "start": "2023-09-19T07:15:25.763+07:00",
      "end": "2023-09-20T08:38:45.575+07:00",
      "deviceid": "ee.kobotoolbox.org:QKoEMvofaLF0EK1r",
      "Data_Responden/nama": "Zhimmy Rahman Lubis",
      "Data_Responden/alamat": "Jl. Sudirman Lubuk Pakam",
      "Data_Responden/telepon": "082361666634",
      "Data_Responden/hp": "082361666634",
      "Data_Responden/ktp": "789101",
      "Data_Responden/interviewer": "Ronaldo Hutabarat",
      "Data_Responden/tanggal": "2023-09-19",
      "Data_Responden/jam": "07:31:00.000+07:00",
      "Group_S/S1": "25",
      "Group_S/S2": "93",
      "Group_S/S3": "KMP Ihan Batak",
      "Group_S/S5": "07:31:00.000+07:00",
      "Group_S/S6": "1",
      "Group_S/S7": "1",
      "Group_S/S8": "2",
      "Group_S/S9": "1",
      "Group_S/S10": "4",
      "Group_S/S11": "1",
      "Group_S/S12": "4",
      "Group_S/S13": "1",
      "Group_S/S14": "2",
      "Group_S/S15": "5",
      "Group_S/S16": "1",
      "Group_S/S17": "6",
      "Group_S/S18": "2",
      "Group_S/S19": "5",
      "Group_S/S20": "3",
      "Group_S/S21": "189000",
      "Group_A/Group_A_1/A1_1": "6",
      "Group_A/Group_A_1/A1_3": "5",
      "Group_A/Group_A_1/A1_4": "5",
      "Group_A/Group_A_1/A1_5": "6",
      "Group_A/Group_A_1/A1_6": "6",
      "Group_A/Group_A_1/A1_7": "6",
      "Group_A/Group_A_1/A1_9": "6",
      "Group_A/Group_A_1/A1_11": "6",
      "Group_A/Group_A_1/A1_12": "6",
      "Group_A/Group_A_1/A1_13": "6",
      "Group_A/Group_A_1/A1_14": "6",
      "Group_A/Group_A_1/A1_15": "6",
      "Group_A/Group_A_1/A1_16": "6",
      "Group_A/Group_A_1/A1_17": "6",
      "Group_A/Group_A_1/A1_18": "6",
      "Group_A/Group_A_1/A1_19": "6",
      "Group_A/Group_A_1/A1_20": "6",
      "Group_A/Group_A_1/A1_21": "6",
      "Group_A/Group_A_1/A1_22": "6",
      "Group_A/Group_A_1/A1_23": "6",
      "Group_A/Group_A_1/A1_24": "5",
      "Group_A/Group_A_1/A1_26": "6",
      "Group_A/Group_A_1/A1_27": "5",
      "Group_A/Group_A_1/A1_28": "5",
      "Group_A/Group_A_1/A1_29": "5",
      "Group_A/Group_A_2/A2_1": "6",
      "Group_A/Group_A_2/A2_3": "5",
      "Group_A/Group_A_2/A2_4": "5",
      "Group_A/Group_A_2/A2_5": "5",
      "Group_A/Group_A_2/A2_6": "5",
      "Group_A/Group_A_2/A2_7": "5",
      "Group_A/Group_A_2/A2_9": "5",
      "Group_A/Group_A_2/A2_11": "5",
      "Group_A/Group_A_2/A2_12": "5",
      "Group_A/Group_A_2/A2_13": "5",
      "Group_A/Group_A_2/A2_14": "5",
      "Group_A/Group_A_2/A2_15": "5",
      "Group_A/Group_A_2/A2_16": "5",
      "Group_A/Group_A_2/A2_17": "5",
      "Group_A/Group_A_2/A2_18": "5",
      "Group_A/Group_A_2/A2_19": "5",
      "Group_A/Group_A_2/A2_20": "5",
      "Group_A/Group_A_2/A2_21": "5",
      "Group_A/Group_A_2/A2_22": "5",
      "Group_A/Group_A_2/A2_23": "5",
      "Group_A/Group_A_2/A2_24": "5",
      "Group_A/Group_A_2/A2_26": "5",
      "Group_A/Group_A_2/A2_27": "5",
      "Group_A/Group_A_2/A2_28": "5",
      "Group_A/Group_A_2/A2_29": "5",
      "Group_A/Group_A_3/A3_30": "5",
      "Group_A/Group_A_3/A3_32": "5",
      "Group_A/Group_A_3/A3_33": "5",
      "Group_A/Group_A_3/A3_34": "5",
      "Group_A/Group_A_3/A3_35": "5",
      "Group_A/Group_A_3/A3_36": "5",
      "Group_A/Group_A_3/A3_37": "5",
      "Group_A/Group_A_3/A3_38": "5",
      "Group_A/Group_A_3/A3_39": "5",
      "Group_A/Group_A_3/A3_40": "5",
      "Group_A/Group_A_3/A3_41": "5",
      "Group_A/Group_A_3/A3_42": "5",
      "Group_A/Group_A_3/A3_43": "5",
      "Group_A/Group_A_3/A3_44": "5",
      "Group_A/Group_A_3/A3_45": "5",
      "Group_A/Group_A_3/A3_46": "5",
      "Group_A/Group_A_3/A3_47": "5",
      "Group_A/Group_A_4/A4_30": "5",
      "Group_A/Group_A_4/A4_32": "5",
      "Group_A/Group_A_4/A4_33": "5",
      "Group_A/Group_A_4/A4_34": "5",
      "Group_A/Group_A_4/A4_35": "5",
      "Group_A/Group_A_4/A4_36": "5",
      "Group_A/Group_A_4/A4_37": "5",
      "Group_A/Group_A_4/A4_38": "5",
      "Group_A/Group_A_4/A4_39": "5",
      "Group_A/Group_A_4/A4_40": "5",
      "Group_A/Group_A_4/A4_41": "5",
      "Group_A/Group_A_4/A4_42": "5",
      "Group_A/Group_A_4/A4_43": "5",
      "Group_A/Group_A_4/A4_44": "5",
      "Group_A/Group_A_4/A4_45": "5",
      "Group_A/Group_A_4/A4_46": "5",
      "Group_A/Group_A_4/A4_47": "5",
      "Group_A/Group_A_5/A5": "5",
      "Group_B/B1": "9",
      "Group_B/B2": "9",
      "Group_C/C1": "1",
      "Group_C/C2": "8",
      "Group_C/C4": "8",
      "Group_C/C5": "1",
      "Group_C/C6_1": "8",
      "Group_C/C6_2": "8",
      "Group_C/C6_3": "8",
      "Group_C/C6_4": "8",
      "Group_C/C6_5": "8",
      "Group_C/C6_6": "8",
      "Group_E/E1": "Pilihan pembayaran",
      "Group_E/E2": "sudah baik",
      "Group_E/E3": "respon yang cepat",
      "Group_F/F1": "respon call center bisa lebih cepat",
      "Group_F/F2": "pelayanan lebih baik",
      "meta/instanceID": "uuid:0a67dc77-7e39-4222-a08b-7b4a6bde9e47",
      "meta/rootUuid": "a844279b-8840-474c-874e-ba0d3cbe3037",
      "meta/instanceName": "Zhimmy Rahman Lubis",
      "meta/deprecatedID": "uuid:a844279b-8840-474c-874e-ba0d3cbe3037",
      "formhub/uuid": "bb6d058c1025445796df3a634c25b864",
      "__version__": "vCDmQMgPw6bpAR9gsGAsJU",
      "_xform_id_string": "aQJhqngNsednTaWshNJwN6",
      "_uuid": "0a67dc77-7e39-4222-a08b-7b4a6bde9e47",
      "_attachments": [],
      "_status": "submitted_via_web",
      "_geolocation": [
        null,
        null
      ],
      "_submission_time": "2023-09-19T00:41:17",
      "_tags": [],
      "_notes": [],
      "_validation_status": {},
      "_submitted_by": null
    },
    {
      "_id": 270614178,
      "start": "2023-09-19T07:41:15.301+07:00",
      "end": "2023-09-20T08:40:13.091+07:00",
      "deviceid": "ee.kobotoolbox.org:QKoEMvofaLF0EK1r",
      "Data_Responden/nama": "Muhammad Iqbal",
      "Data_Responden/alamat": "Deli Serdang",
      "Data_Responden/telepon": "081361673777",
      "Data_Responden/hp": "081361673777",
      "Data_Responden/ktp": "189003",
      "Data_Responden/interviewer": "Ronaldo Hutabarat",
      "Data_Responden/tanggal": "2023-09-19",
      "Data_Responden/jam": "07:44:00.000+07:00",
      "Group_S/S1": "25",
      "Group_S/S2": "93",
      "Group_S/S3": "KMP Ihan Batak",
      "Group_S/S5": "09:00:00.000+07:00",
      "Group_S/S6": "1",
      "Group_S/S7": "1",
      "Group_S/S8": "2",
      "Group_S/S9": "1",
      "Group_S/S10": "4",
      "Group_S/S11": "1",
      "Group_S/S12": "4",
      "Group_S/S13": "1",
      "Group_S/S14": "2",
      "Group_S/S15": "4",
      "Group_S/S16": "8",
      "Group_S/S17": "6",
      "Group_S/S18": "2",
      "Group_S/S19": "5",
      "Group_S/S20": "3",
      "Group_S/S21": "187200",
      "Group_A/Group_A_1/A1_1": "6",
      "Group_A/Group_A_1/A1_3": "5",
      "Group_A/Group_A_1/A1_4": "6",
      "Group_A/Group_A_1/A1_5": "6",
      "Group_A/Group_A_1/A1_6": "6",
      "Group_A/Group_A_1/A1_7": "6",
      "Group_A/Group_A_1/A1_9": "6",
      "Group_A/Group_A_1/A1_11": "6",
      "Group_A/Group_A_1/A1_12": "6",
      "Group_A/Group_A_1/A1_13": "6",
      "Group_A/Group_A_1/A1_14": "6",
      "Group_A/Group_A_1/A1_15": "6",
      "Group_A/Group_A_1/A1_16": "6",
      "Group_A/Group_A_1/A1_17": "6",
      "Group_A/Group_A_1/A1_18": "6",
      "Group_A/Group_A_1/A1_19": "6",
      "Group_A/Group_A_1/A1_20": "6",
      "Group_A/Group_A_1/A1_21": "6",
      "Group_A/Group_A_1/A1_22": "6",
      "Group_A/Group_A_1/A1_23": "6",
      "Group_A/Group_A_1/A1_24": "6",
      "Group_A/Group_A_1/A1_26": "6",
      "Group_A/Group_A_1/A1_27": "6",
      "Group_A/Group_A_1/A1_28": "6",
      "Group_A/Group_A_1/A1_29": "6",
      "Group_A/Group_A_2/A2_1": "3",
      "Group_A/Group_A_2/A2_3": "4",
      "Group_A/Group_A_2/A2_4": "5",
      "Group_A/Group_A_2/A2_5": "4",
      "Group_A/Group_A_2/A2_6": "4",
      "Group_A/Group_A_2/A2_7": "4",
      "Group_A/Group_A_2/A2_9": "5",
      "Group_A/Group_A_2/A2_11": "5",
      "Group_A/Group_A_2/A2_12": "4",
      "Group_A/Group_A_2/A2_13": "4",
      "Group_A/Group_A_2/A2_14": "4",
      "Group_A/Group_A_2/A2_15": "5",
      "Group_A/Group_A_2/A2_16": "5",
      "Group_A/Group_A_2/A2_17": "5",
      "Group_A/Group_A_2/A2_18": "5",
      "Group_A/Group_A_2/A2_19": "5",
      "Group_A/Group_A_2/A2_20": "5",
      "Group_A/Group_A_2/A2_21": "6",
      "Group_A/Group_A_2/A2_22": "1",
      "Group_A/Group_A_2/A2_23": "3",
      "Group_A/Group_A_2/A2_24": "4",
      "Group_A/Group_A_2/A2_26": "4",
      "Group_A/Group_A_2/A2_27": "6",
      "Group_A/Group_A_2/A2_28": "4",
      "Group_A/Group_A_2/A2_29": "4",
      "Group_A/Group_A_3/A3_30": "5",
      "Group_A/Group_A_3/A3_32": "5",
      "Group_A/Group_A_3/A3_33": "6",
      "Group_A/Group_A_3/A3_34": "5",
      "Group_A/Group_A_3/A3_35": "6",
      "Group_A/Group_A_3/A3_36": "5",
      "Group_A/Group_A_3/A3_37": "5",
      "Group_A/Group_A_3/A3_38": "4",
      "Group_A/Group_A_3/A3_39": "5",
      "Group_A/Group_A_3/A3_40": "5",
      "Group_A/Group_A_3/A3_41": "5",
      "Group_A/Group_A_3/A3_42": "5",
      "Group_A/Group_A_3/A3_43": "5",
      "Group_A/Group_A_3/A3_44": "5",
      "Group_A/Group_A_3/A3_45": "5",
      "Group_A/Group_A_3/A3_46": "5",
      "Group_A/Group_A_3/A3_47": "6",
      "Group_A/Group_A_4/A4_30": "5",
      "Group_A/Group_A_4/A4_32": "5",
      "Group_A/Group_A_4/A4_33": "5",
      "Group_A/Group_A_4/A4_34": "5",
      "Group_A/Group_A_4/A4_35": "5",
      "Group_A/Group_A_4/A4_36": "4",
      "Group_A/Group_A_4/A4_37": "4",
      "Group_A/Group_A_4/A4_38": "5",
      "Group_A/Group_A_4/A4_39": "5",
      "Group_A/Group_A_4/A4_40": "5",
      "Group_A/Group_A_4/A4_41": "5",
      "Group_A/Group_A_4/A4_42": "5",
      "Group_A/Group_A_4/A4_43": "5",
      "Group_A/Group_A_4/A4_44": "5",
      "Group_A/Group_A_4/A4_45": "5",
      "Group_A/Group_A_4/A4_46": "5",
      "Group_A/Group_A_4/A4_47": "5",
      "Group_A/Group_A_5/A5": "4",
      "Group_A/Group_A_5/A6": "informasi, call center, respon time keluhan, warung halal,fasilitas pelayanan keluhan pelanggan di pelabuhan",
      "Group_B/B1": "6",
      "Group_B/B2": "8",
      "Group_C/C1": "1",
      "Group_C/C2": "7",
      "Group_C/C4": "7",
      "Group_C/C5": "1",
      "Group_C/C6_1": "7",
      "Group_C/C6_2": "6",
      "Group_C/C6_3": "7",
      "Group_C/C6_4": "7",
      "Group_C/C6_5": "7",
      "Group_C/C6_6": "7",
      "Group_E/E1": "restoran halal",
      "Group_E/E2": "kurang baik",
      "Group_E/E3": "free call",
      "Group_F/F1": "respon call center lambat",
      "Group_F/F2": "restoran halal",
      "meta/instanceID": "uuid:a18cc75e-d770-446f-89be-28cd674bc978",
      "meta/rootUuid": "ca8dbf78-61e8-473d-8ca1-92bfe9b831b2",
      "meta/instanceName": "Muhammad Iqbal",
      "meta/deprecatedID": "uuid:ca8dbf78-61e8-473d-8ca1-92bfe9b831b2",
      "formhub/uuid": "bb6d058c1025445796df3a634c25b864",
      "__version__": "vCDmQMgPw6bpAR9gsGAsJU",
      "_xform_id_string": "aQJhqngNsednTaWshNJwN6",
      "_uuid": "a18cc75e-d770-446f-89be-28cd674bc978",
      "_attachments": [],
      "_status": "submitted_via_web",
      "_geolocation": [
        null,
        null
      ],
      "_submission_time": "2023-09-19T01:16:40",
      "_tags": [],
      "_notes": [],
      "_validation_status": {},
      "_submitted_by": null
    },
    {
      "_id": 270616098,
      "start": "2023-09-18T09:08:36.121+07:00",
      "end": "2023-09-20T08:41:10.866+07:00",
      "deviceid": "ee.kobotoolbox.org:89nS4eXYrObGdaRt",
      "Data_Responden/nama": "ARAFAH",
      "Data_Responden/alamat": "LAPPARIAJA",
      "Data_Responden/telepon": "082229223551",
      "Data_Responden/hp": "082229223551",
      "Data_Responden/ktp": "730812",
      "Data_Responden/interviewer": "REZA",
      "Data_Responden/tanggal": "2023-09-13",
      "Data_Responden/jam": "09:30:00.000+07:00",
      "Group_S/S1": "2",
      "Group_S/S2": "5",
      "Group_S/S3": "KMP Merak",
      "Group_S/S5": "12:00:00.000+07:00",
      "Group_S/S6": "1",
      "Group_S/S7": "1",
      "Group_S/S8": "3",
      "Group_S/S9": "96",
      "Group_S/S9_L": "DRIVER",
      "Group_S/S10": "4",
      "Group_S/S11": "1",
      "Group_S/S12": "4",
      "Group_S/S13": "2",
      "Group_S/S14": "96",
      "Group_S/S14_L": "PENGURUS",
      "Group_S/S15": "4",
      "Group_S/S16": "12",
      "Group_S/S17": "6",
      "Group_S/S18": "2",
      "Group_S/S19": "2",
      "Group_S/S20": "2",
      "Group_S/S21": "1900000",
      "Group_A/Group_A_1/A1_1": "5",
      "Group_A/Group_A_1/A1_2": "5",
      "Group_A/Group_A_1/A1_3": "5",
      "Group_A/Group_A_1/A1_4": "5",
      "Group_A/Group_A_1/A1_5": "5",
      "Group_A/Group_A_1/A1_6": "5",
      "Group_A/Group_A_1/A1_7": "5",
      "Group_A/Group_A_1/A1_8": "5",
      "Group_A/Group_A_1/A1_10": "5",
      "Group_A/Group_A_1/A1_12": "5",
      "Group_A/Group_A_1/A1_13": "5",
      "Group_A/Group_A_1/A1_14": "5",
      "Group_A/Group_A_1/A1_15": "5",
      "Group_A/Group_A_1/A1_16": "5",
      "Group_A/Group_A_1/A1_17": "5",
      "Group_A/Group_A_1/A1_18": "5",
      "Group_A/Group_A_1/A1_19": "5",
      "Group_A/Group_A_1/A1_20": "5",
      "Group_A/Group_A_1/A1_21": "5",
      "Group_A/Group_A_1/A1_22": "5",
      "Group_A/Group_A_1/A1_23": "5",
      "Group_A/Group_A_1/A1_25": "5",
      "Group_A/Group_A_1/A1_26": "5",
      "Group_A/Group_A_1/A1_27": "5",
      "Group_A/Group_A_1/A1_28": "5",
      "Group_A/Group_A_1/A1_29": "5",
      "Group_A/Group_A_2/A2_1": "5",
      "Group_A/Group_A_2/A2_2": "5",
      "Group_A/Group_A_2/A2_3": "5",
      "Group_A/Group_A_2/A2_4": "5",
      "Group_A/Group_A_2/A2_5": "5",
      "Group_A/Group_A_2/A2_6": "5",
      "Group_A/Group_A_2/A2_7": "5",
      "Group_A/Group_A_2/A2_8": "5",
      "Group_A/Group_A_2/A2_10": "5",
      "Group_A/Group_A_2/A2_12": "5",
      "Group_A/Group_A_2/A2_13": "5",
      "Group_A/Group_A_2/A2_14": "5",
      "Group_A/Group_A_2/A2_15": "5",
      "Group_A/Group_A_2/A2_16": "5",
      "Group_A/Group_A_2/A2_17": "5",
      "Group_A/Group_A_2/A2_18": "5",
      "Group_A/Group_A_2/A2_19": "5",
      "Group_A/Group_A_2/A2_20": "5",
      "Group_A/Group_A_2/A2_21": "5",
      "Group_A/Group_A_2/A2_22": "5",
      "Group_A/Group_A_2/A2_23": "5",
      "Group_A/Group_A_2/A2_25": "5",
      "Group_A/Group_A_2/A2_26": "5",
      "Group_A/Group_A_2/A2_27": "5",
      "Group_A/Group_A_2/A2_28": "5",
      "Group_A/Group_A_2/A2_29": "5",
      "Group_A/Group_A_3/A3_30": "5",
      "Group_A/Group_A_3/A3_32": "5",
      "Group_A/Group_A_3/A3_33": "5",
      "Group_A/Group_A_3/A3_34": "5",
      "Group_A/Group_A_3/A3_35": "5",
      "Group_A/Group_A_3/A3_36": "5",
      "Group_A/Group_A_3/A3_37": "5",
      "Group_A/Group_A_3/A3_38": "5",
      "Group_A/Group_A_3/A3_39": "5",
      "Group_A/Group_A_3/A3_40": "5",
      "Group_A/Group_A_3/A3_41": "5",
      "Group_A/Group_A_3/A3_42": "5",
      "Group_A/Group_A_3/A3_43": "5",
      "Group_A/Group_A_3/A3_44": "5",
      "Group_A/Group_A_3/A3_45": "5",
      "Group_A/Group_A_3/A3_46": "5",
      "Group_A/Group_A_3/A3_47": "5",
      "Group_A/Group_A_4/A4_30": "5",
      "Group_A/Group_A_4/A4_32": "5",
      "Group_A/Group_A_4/A4_33": "5",
      "Group_A/Group_A_4/A4_34": "5",
      "Group_A/Group_A_4/A4_35": "5",
      "Group_A/Group_A_4/A4_36": "5",
      "Group_A/Group_A_4/A4_37": "5",
      "Group_A/Group_A_4/A4_38": "5",
      "Group_A/Group_A_4/A4_39": "5",
      "Group_A/Group_A_4/A4_40": "5",
      "Group_A/Group_A_4/A4_41": "5",
      "Group_A/Group_A_4/A4_42": "5",
      "Group_A/Group_A_4/A4_43": "5",
      "Group_A/Group_A_4/A4_44": "5",
      "Group_A/Group_A_4/A4_45": "5",
      "Group_A/Group_A_4/A4_46": "5",
      "Group_A/Group_A_4/A4_47": "5",
      "Group_A/Group_A_5/A5": "5",
      "Group_B/B1": "9",
      "Group_B/B2": "9",
      "Group_C/C1": "1",
      "Group_C/C2": "8",
      "Group_C/C4": "8",
      "Group_C/C5": "1",
      "Group_C/C6_1": "8",
      "Group_C/C6_2": "8",
      "Group_C/C6_3": "8",
      "Group_C/C6_4": "8",
      "Group_C/C6_5": "8",
      "Group_C/C6_6": "8",
      "Group_E/E2": "BELUM PERNAH MENGGUNAKAN",
      "Group_E/E3": "BELUM PERNAH MENGGUNAKAN",
      "Group_F/F1": "HARGA TIKET PERLU DI EVALUASI",
      "Group_F/F2": "PERBAIKAN AKSES MENUJU TEMPAT PARKIR",
      "meta/instanceID": "uuid:0eba81ce-1cac-4cfb-b7f1-8ee34da5698e",
      "meta/rootUuid": "c80a5bfb-697e-4484-a78c-f2eed7dd0d95",
      "meta/instanceName": "ARAFAH",
      "meta/deprecatedID": "uuid:c80a5bfb-697e-4484-a78c-f2eed7dd0d95",
      "formhub/uuid": "bb6d058c1025445796df3a634c25b864",
      "__version__": "vCDmQMgPw6bpAR9gsGAsJU",
      "_xform_id_string": "aQJhqngNsednTaWshNJwN6",
      "_uuid": "0eba81ce-1cac-4cfb-b7f1-8ee34da5698e",
      "_attachments": [],
      "_status": "submitted_via_web",
      "_geolocation": [
        null,
        null
      ],
      "_submission_time": "2023-09-19T01:39:26",
      "_tags": [],
      "_notes": [],
      "_validation_status": {},
      "_submitted_by": null
    },
    {
      "_id": 270616464,
      "start": "2023-09-19T08:16:37.650+07:00",
      "end": "2023-09-20T08:41:45.563+07:00",
      "deviceid": "ee.kobotoolbox.org:QKoEMvofaLF0EK1r",
      "Data_Responden/nama": "Rudi Sinaga",
      "Data_Responden/alamat": "Pangururan Samosir",
      "Data_Responden/telepon": "082282547682",
      "Data_Responden/hp": "082282547682",
      "Data_Responden/ktp": "810001",
      "Data_Responden/interviewer": "Ronaldo Hutabarat",
      "Data_Responden/tanggal": "2023-09-19",
      "Data_Responden/jam": "08:32:00.000+07:00",
      "Group_S/S1": "25",
      "Group_S/S2": "93",
      "Group_S/S3": "KMP Ihan Batak",
      "Group_S/S5": "09:00:00.000+07:00",
      "Group_S/S6": "1",
      "Group_S/S7": "1",
      "Group_S/S8": "2",
      "Group_S/S9": "1",
      "Group_S/S10": "4",
      "Group_S/S11": "1",
      "Group_S/S12": "8",
      "Group_S/S13": "2",
      "Group_S/S14": "2",
      "Group_S/S15": "6",
      "Group_S/S16": "1",
      "Group_S/S17": "6",
      "Group_S/S18": "2",
      "Group_S/S19": "5",
      "Group_S/S20": "5",
      "Group_S/S21": "540000",
      "Group_A/Group_A_1/A1_1": "5",
      "Group_A/Group_A_1/A1_3": "5",
      "Group_A/Group_A_1/A1_4": "5",
      "Group_A/Group_A_1/A1_5": "5",
      "Group_A/Group_A_1/A1_6": "5",
      "Group_A/Group_A_1/A1_7": "5",
      "Group_A/Group_A_1/A1_9": "5",
      "Group_A/Group_A_1/A1_11": "5",
      "Group_A/Group_A_1/A1_12": "5",
      "Group_A/Group_A_1/A1_13": "5",
      "Group_A/Group_A_1/A1_14": "5",
      "Group_A/Group_A_1/A1_15": "6",
      "Group_A/Group_A_1/A1_16": "6",
      "Group_A/Group_A_1/A1_17": "5",
      "Group_A/Group_A_1/A1_18": "5",
      "Group_A/Group_A_1/A1_19": "5",
      "Group_A/Group_A_1/A1_20": "5",
      "Group_A/Group_A_1/A1_21": "5",
      "Group_A/Group_A_1/A1_22": "5",
      "Group_A/Group_A_1/A1_23": "5",
      "Group_A/Group_A_1/A1_24": "5",
      "Group_A/Group_A_1/A1_26": "5",
      "Group_A/Group_A_1/A1_27": "5",
      "Group_A/Group_A_1/A1_28": "5",
      "Group_A/Group_A_1/A1_29": "5",
      "Group_A/Group_A_2/A2_1": "5",
      "Group_A/Group_A_2/A2_3": "5",
      "Group_A/Group_A_2/A2_4": "5",
      "Group_A/Group_A_2/A2_5": "5",
      "Group_A/Group_A_2/A2_6": "5",
      "Group_A/Group_A_2/A2_7": "5",
      "Group_A/Group_A_2/A2_9": "5",
      "Group_A/Group_A_2/A2_11": "5",
      "Group_A/Group_A_2/A2_12": "4",
      "Group_A/Group_A_2/A2_13": "4",
      "Group_A/Group_A_2/A2_14": "5",
      "Group_A/Group_A_2/A2_15": "5",
      "Group_A/Group_A_2/A2_16": "5",
      "Group_A/Group_A_2/A2_17": "4",
      "Group_A/Group_A_2/A2_18": "5",
      "Group_A/Group_A_2/A2_19": "5",
      "Group_A/Group_A_2/A2_20": "4",
      "Group_A/Group_A_2/A2_21": "5",
      "Group_A/Group_A_2/A2_22": "5",
      "Group_A/Group_A_2/A2_23": "5",
      "Group_A/Group_A_2/A2_24": "5",
      "Group_A/Group_A_2/A2_26": "5",
      "Group_A/Group_A_2/A2_27": "5",
      "Group_A/Group_A_2/A2_28": "5",
      "Group_A/Group_A_2/A2_29": "5",
      "Group_A/Group_A_3/A3_30": "5",
      "Group_A/Group_A_3/A3_32": "5",
      "Group_A/Group_A_3/A3_33": "5",
      "Group_A/Group_A_3/A3_34": "5",
      "Group_A/Group_A_3/A3_35": "5",
      "Group_A/Group_A_3/A3_36": "6",
      "Group_A/Group_A_3/A3_37": "5",
      "Group_A/Group_A_3/A3_38": "5",
      "Group_A/Group_A_3/A3_39": "5",
      "Group_A/Group_A_3/A3_40": "5",
      "Group_A/Group_A_3/A3_41": "5",
      "Group_A/Group_A_3/A3_42": "5",
      "Group_A/Group_A_3/A3_43": "5",
      "Group_A/Group_A_3/A3_44": "5",
      "Group_A/Group_A_3/A3_45": "5",
      "Group_A/Group_A_3/A3_46": "6",
      "Group_A/Group_A_3/A3_47": "5",
      "Group_A/Group_A_4/A4_30": "5",
      "Group_A/Group_A_4/A4_32": "5",
      "Group_A/Group_A_4/A4_33": "5",
      "Group_A/Group_A_4/A4_34": "5",
      "Group_A/Group_A_4/A4_35": "5",
      "Group_A/Group_A_4/A4_36": "4",
      "Group_A/Group_A_4/A4_37": "5",
      "Group_A/Group_A_4/A4_38": "5",
      "Group_A/Group_A_4/A4_39": "5",
      "Group_A/Group_A_4/A4_40": "5",
      "Group_A/Group_A_4/A4_41": "5",
      "Group_A/Group_A_4/A4_42": "5",
      "Group_A/Group_A_4/A4_43": "5",
      "Group_A/Group_A_4/A4_44": "5",
      "Group_A/Group_A_4/A4_45": "5",
      "Group_A/Group_A_4/A4_46": "5",
      "Group_A/Group_A_4/A4_47": "5",
      "Group_A/Group_A_5/A5": "5",
      "Group_B/B1": "9",
      "Group_B/B2": "9",
      "Group_C/C1": "1",
      "Group_C/C2": "8",
      "Group_C/C4": "8",
      "Group_C/C5": "1",
      "Group_C/C6_1": "8",
      "Group_C/C6_2": "8",
      "Group_C/C6_3": "8",
      "Group_C/C6_4": "8",
      "Group_C/C6_5": "8",
      "Group_C/C6_6": "8",
      "Group_E/E1": "channel pembayaran",
      "Group_E/E2": "mudah",
      "Group_E/E3": "respon",
      "Group_F/F1": "tidak ada",
      "Group_F/F2": "tarif truk diturunkan",
      "meta/instanceID": "uuid:871a40a2-ce07-4b2f-84c1-28960de821c8",
      "meta/rootUuid": "186045b4-ea29-4ad2-988a-12d61dce66f2",
      "meta/instanceName": "Rudi Sinaga",
      "meta/deprecatedID": "uuid:186045b4-ea29-4ad2-988a-12d61dce66f2",
      "formhub/uuid": "bb6d058c1025445796df3a634c25b864",
      "__version__": "vCDmQMgPw6bpAR9gsGAsJU",
      "_xform_id_string": "aQJhqngNsednTaWshNJwN6",
      "_uuid": "871a40a2-ce07-4b2f-84c1-28960de821c8",
      "_attachments": [],
      "_status": "submitted_via_web",
      "_geolocation": [
        null,
        null
      ],
      "_submission_time": "2023-09-19T01:43:57",
      "_tags": [],
      "_notes": [],
      "_validation_status": {},
      "_submitted_by": null
    }
  ]
}